Chapter 11 Deeper data insights part 2: Week Eleven | Data Science for Biologists - 5023Y
…
The third row shows a series of associations where there is clearly a relationship between the two variables, but it is also not linear so would be inappropriate for a Pearson’s correlation.

11.1.2 Non-linear correlations

So what should we do if the relationship between our variables is non-linear? Instead of using Pearson’s correlation coefficient we can calculate something called a rank correlation.

Instead of working with the raw values of our two variables we can use rank ordering instead. The idea is pretty simple if we start with the lowest vaule in a variable and order it as ‘1,’ then assign labels ‘2,’ ‘3’ etc. as we ascend in rank order. We can see a way that this could be applied manually with the function dense_rank from dplyr below:

penguins %>% select(bill_length_mm, 
                    bill_depth_mm) %>% 
  drop_na() %>% 
  mutate(rank_length=dense_rank((bill_length_mm)), 
         rank_depth=dense_rank((bill_depth_mm)))

## # A tibble: 342 x 4
##    bill_length_mm bill_depth_mm rank_length rank_depth
##             <dbl>         <dbl>       <int>      <int>
##  1           39.1          18.7          43         57
##  2           39.5          17.4          46         44
##  3           40.3          18            52         50
##  4           36.7          19.3          23         63
##  5           39.3          20.6          45         75
##  6           38.9          17.8          41         48
##  7           39.2          19.6          44         66
##  8           34.1          18.1           5         51
##  9           42            20.2          66         72
## 10           37.8          17.1          32         41
## # ... with 332 more rows
…
